…
  select(arm, subject_ID, data) %>% 
  mutate(
    arm = case_when(
    arm == "con" ~ "control",
    arm == "exp" ~ "experiment")
) %>% 
  unnest(data) %>% 
  pivot_longer(
    week_1:week_8,
    values_to = "data",
    names_to = "week"
) 
```

    ## # A tibble: 160 x 4
    ##    arm     subject_ID week    data
    ##    <chr>   <chr>      <chr>  <dbl>
    ##  1 control 01         week_1  0.2 
    ##  2 control 01         week_2 -1.31
    ##  3 control 01         week_3  0.66
    ##  4 control 01         week_4  1.96
    ##  5 control 01         week_5  0.23
    ##  6 control 01         week_6  1.09
    ##  7 control 01         week_7  0.05
    ##  8 control 01         week_8  1.94
    ##  9 control 02         week_1  1.13
    ## 10 control 02         week_2 -0.88
    ## # ... with 150 more rows
…
